{"name":"","sort":"active","page":1,"pageSize":15,"pageCount":18,"listCount":15,"totalCount":259,"sorts":["active","newest","hottest","votes","viewCount","usedCount","answerCount","answerCountAsc","commentCount","favoriteCount","followers","reportCount"],"list":[{"id":861,"type":"question","creationDate":1550762618000,"creationDateFormatted":"02/21/2019 03:23 PM","title":"As an admin how do I better organize the spaces?","body":"<div class=\"fr-view clearfix\"><p><br /><br /><img src=\"/storage/attachments/1-ah-spaces-navigation-drop-down-2018-09-18-at-41056.png\" class=\"fr-fil fr-dib\" /></p></div>","bodyAsHTML":"<div class=\"fr-view clearfix\">\n <p><br /><br /><img src=\"/storage/attachments/1-ah-spaces-navigation-drop-down-2018-09-18-at-41056.png\" class=\"fr-fil fr-dib\" /></p>\n</div>","author":{"id":97,"username":"demo3","reputation":1},"lastEditedAction":1334,"activeRevisionId":951,"revisionIds":[951,932,860],"lastActiveUserId":7,"lastActiveDate":1552681443000,"attachments":[{"id":1,"fileName":"ah-spaces-navigation-drop-down-2018-09-18-at-41056.png","size":300688,"sizeFormatted":"300.7 kB","url":"/storage/attachments/1-ah-spaces-navigation-drop-down-2018-09-18-at-41056.png","image":true},{"id":8,"fileName":"casual.png","size":32129,"sizeFormatted":"32.1 kB","url":"/storage/attachments/8-casual.png","image":true}],"childrenIds":[864,888,903,905],"commentIds":[905],"marked":false,"topics":[{"id":630,"creationDate":1547066772000,"creationDateFormatted":"01/09/2019 08:46 PM","name":"testing","author":{"id":43,"username":"Tom.Pryce","reputation":0},"usedCount":26,"getImmediateChildren":[],"getParents":[]},{"id":840,"creationDate":1550762618000,"creationDateFormatted":"02/21/2019 03:23 PM","name":"admin","author":{"id":97,"username":"demo3","reputation":1},"usedCount":1,"getImmediateChildren":[],"getParents":[]},{"id":839,"creationDate":1550762618000,"creationDateFormatted":"02/21/2019 03:23 PM","name":"spaces","author":{"id":97,"username":"demo3","reputation":1},"usedCount":1,"getImmediateChildren":[],"getParents":[]}],"primaryContainerId":11,"containerIds":[7,11],"slug":"as-an-admin-how-do-i-better-organize-the-spaces","wiki":false,"score":0,"depth":0,"viewCount":26,"upVoteCount":0,"downVoteCount":0,"nodeStates":[],"answers":[864,888,903],"answerCount":3},{"id":499,"type":"question","creationDate":1552331703000,"creationDateFormatted":"03/11/2019 07:15 PM","title":"Did the Big Bang make a bang?","body":"","bodyAsHTML":"","author":{"id":22,"username":"confused","realname":"Confused User","reputation":0},"lastEditedAction":520,"activeRevisionId":499,"revisionIds":[499],"lastActiveUserId":22,"lastActiveDate":1552331703000,"attachments":[],"childrenIds":[500],"commentIds":[],"marked":false,"topics":[{"id":74,"creationDate":1545231740000,"creationDateFormatted":"12/19/2018 03:02 PM","name":"space","author":{"id":22,"username":"confused","realname":"Confused User","reputation":0},"usedCount":19,"getImmediateChildren":[],"getParents":[]},{"id":1,"creationDate":1545231736000,"creationDateFormatted":"12/19/2018 03:02 PM","name":"science","author":{"id":22,"username":"confused","realname":"Confused User","reputation":0},"usedCount":36,"getImmediateChildren":[],"getParents":[]}],"primaryContainerId":8,"containerIds":[7,8],"slug":"did-the-big-bang-make-a-bang-1","wiki":false,"score":0,"depth":0,"viewCount":8,"upVoteCount":0,"downVoteCount":0,"nodeStates":[],"answers":[500],"answerCount":1},{"id":890,"type":"question","creationDate":1551290027000,"creationDateFormatted":"02/27/2019 05:53 PM","title":"Deleteactivityandcontent Q","body":"<div class=\"fr-view clearfix\"><p>testing delete activity and content via api </p></div>","bodyAsHTML":"<div class=\"fr-view clearfix\">\n <p>testing delete activity and content via api </p>\n</div>","author":{"id":118,"username":"deleteactivityandcontent","reputation":1},"lastEditedAction":1266,"activeRevisionId":903,"revisionIds":[903],"lastActiveUserId":118,"lastActiveDate":1551290027000,"attachments":[],"childrenIds":[],"commentIds":[],"marked":false,"topics":[{"id":630,"creationDate":1547066772000,"creationDateFormatted":"01/09/2019 08:46 PM","name":"testing","author":{"id":43,"username":"Tom.Pryce","reputation":0},"usedCount":26,"getImmediateChildren":[],"getParents":[]},{"id":691,"creationDate":1547066803000,"creationDateFormatted":"01/09/2019 08:46 PM","name":"api","author":{"id":52,"username":"billoakes","reputation":0},"usedCount":22,"getImmediateChildren":[],"getParents":[]}],"primaryContainerId":11,"containerIds":[7,11],"slug":"deleteactivityandcontent-q","wiki":false,"score":0,"depth":0,"viewCount":2,"upVoteCount":0,"downVoteCount":0,"nodeStates":[],"answers":[],"answerCount":0},{"id":894,"type":"question","creationDate":1551288386000,"creationDateFormatted":"02/27/2019 05:26 PM","title":"Hard Delete Test User Q","body":"<div class=\"fr-view clearfix\"><p>testing hard delete via api with harddeletetestuser</p></div>","bodyAsHTML":"<div class=\"fr-view clearfix\">\n <p>testing hard delete via api with harddeletetestuser</p>\n</div>","author":{"id":124,"username":"harddeletetestuser","reputation":1},"lastEditedAction":1256,"activeRevisionId":913,"revisionIds":[913],"lastActiveUserId":124,"lastActiveDate":1551288386000,"attachments":[],"childrenIds":[],"commentIds":[],"marked":false,"topics":[{"id":630,"creationDate":1547066772000,"creationDateFormatted":"01/09/2019 08:46 PM","name":"testing","author":{"id":43,"username":"Tom.Pryce","reputation":0},"usedCount":26,"getImmediateChildren":[],"getParents":[]},{"id":691,"creationDate":1547066803000,"creationDateFormatted":"01/09/2019 08:46 PM","name":"api","author":{"id":52,"username":"billoakes","reputation":0},"usedCount":22,"getImmediateChildren":[],"getParents":[]}],"primaryContainerId":11,"containerIds":[7,11],"slug":"hard-delete-test-user-q","wiki":false,"score":0,"depth":0,"viewCount":3,"upVoteCount":0,"downVoteCount":0,"nodeStates":[],"answers":[],"answerCount":0},{"id":892,"type":"question","creationDate":1551284438000,"creationDateFormatted":"02/27/2019 04:20 PM","title":"Creating Ques for DeleteAttchmntsUser","body":"<div class=\"fr-view clearfix\"><p>adding attchmnt for deleteattchmntuser to test API<img src=\"/storage/attachments/14-answerhub-devada-black-200.png\" class=\"fr-fil fr-dib\" /></p></div>","bodyAsHTML":"<div class=\"fr-view clearfix\">\n <p>adding attchmnt for deleteattchmntuser to test API<img src=\"/storage/attachments/14-answerhub-devada-black-200.png\" class=\"fr-fil fr-dib\" /></p>\n</div>","author":{"id":117,"username":"deleteattchmntsuser","reputation":1},"lastEditedAction":1251,"activeRevisionId":911,"revisionIds":[911],"lastActiveUserId":117,"lastActiveDate":1551284438000,"attachments":[{"id":14,"fileName":"answerhub-devada-black-200.png","size":4134,"sizeFormatted":"4.1 kB","url":"/storage/attachments/14-answerhub-devada-black-200.png","image":true}],"childrenIds":[],"commentIds":[],"marked":false,"topics":[{"id":511,"creationDate":1545235989000,"creationDateFormatted":"12/19/2018 04:13 PM","name":"test","author":{"id":7,"username":"dzone","reputation":77},"usedCount":5,"getImmediateChildren":[],"getParents":[]},{"id":691,"creationDate":1547066803000,"creationDateFormatted":"01/09/2019 08:46 PM","name":"api","author":{"id":52,"username":"billoakes","reputation":0},"usedCount":22,"getImmediateChildren":[],"getParents":[]}],"primaryContainerId":11,"containerIds":[7,11],"slug":"creating-ques-for-deleteattchmntsuser","wiki":false,"score":0,"depth":0,"viewCount":1,"upVoteCount":0,"downVoteCount":0,"nodeStates":[],"answers":[],"answerCount":0},{"id":880,"type":"question","creationDate":1551127487000,"creationDateFormatted":"02/25/2019 08:44 PM","title":"How do I test API endpoint to retrieve all attachments?","body":"<div class=\"fr-view clearfix\"><p>Testing Retrieve All User&#39;s Attachments<img src=\"/storage/attachments/5-screen-shot-2019-02-22-at-103308-am.png\" class=\"fr-fil fr-dib\" /></p></div>","bodyAsHTML":"<div class=\"fr-view clearfix\">\n <p>Testing Retrieve All User's Attachments<img src=\"/storage/attachments/5-screen-shot-2019-02-22-at-103308-am.png\" class=\"fr-fil fr-dib\" /></p>\n</div>","author":{"id":11,"username":"answerhub","reputation":2},"lastEditedAction":1233,"activeRevisionId":893,"revisionIds":[893],"lastActiveUserId":123,"lastActiveDate":1551282990000,"attachments":[{"id":5,"fileName":"screen-shot-2019-02-22-at-103308-am.png","size":127421,"sizeFormatted":"127.4 kB","url":"/storage/attachments/5-screen-shot-2019-02-22-at-103308-am.png","image":true}],"childrenIds":[883],"commentIds":[],"marked":false,"topics":[{"id":630,"creationDate":1547066772000,"creationDateFormatted":"01/09/2019 08:46 PM","name":"testing","author":{"id":43,"username":"Tom.Pryce","reputation":0},"usedCount":26,"getImmediateChildren":[],"getParents":[]},{"id":691,"creationDate":1547066803000,"creationDateFormatted":"01/09/2019 08:46 PM","name":"api","author":{"id":52,"username":"billoakes","reputation":0},"usedCount":22,"getImmediateChildren":[],"getParents":[]}],"primaryContainerId":11,"containerIds":[7,11],"slug":"how-do-i-test-api-endpoint-to-retrieve-all-attachm","wiki":false,"score":0,"depth":0,"viewCount":2,"upVoteCount":0,"downVoteCount":0,"nodeStates":[],"answers":[883],"answerCount":1},{"id":870,"type":"question","creationDate":1551282768000,"creationDateFormatted":"02/27/2019 03:52 PM","title":"Creating Question for testusertoanon","body":"<div class=\"fr-view clearfix\"><p>testing schedule operation from API for testusertoanon</p></div>","bodyAsHTML":"<div class=\"fr-view clearfix\">\n <p>testing schedule operation from API for testusertoanon</p>\n</div>","author":{"id":123,"username":"testusertoanon","reputation":1},"lastEditedAction":1227,"activeRevisionId":889,"revisionIds":[889],"lastActiveUserId":123,"lastActiveDate":1551282768000,"attachments":[],"childrenIds":[],"commentIds":[],"marked":false,"topics":[{"id":630,"creationDate":1547066772000,"creationDateFormatted":"01/09/2019 08:46 PM","name":"testing","author":{"id":43,"username":"Tom.Pryce","reputation":0},"usedCount":26,"getImmediateChildren":[],"getParents":[]},{"id":691,"creationDate":1547066803000,"creationDateFormatted":"01/09/2019 08:46 PM","name":"api","author":{"id":52,"username":"billoakes","reputation":0},"usedCount":22,"getImmediateChildren":[],"getParents":[]}],"primaryContainerId":11,"containerIds":[7,11],"slug":"creating-question-for-testusertoanon","wiki":false,"score":0,"depth":0,"viewCount":1,"upVoteCount":0,"downVoteCount":0,"nodeStates":[],"answers":[],"answerCount":0},{"id":845,"type":"question","creationDate":1549651358000,"creationDateFormatted":"02/08/2019 06:42 PM","title":"How do I get a login to the success portal?","body":"<div class=\"fr-view clearfix\"><p>I need to ask a question in the success portal, but I don&#39;t have a login.</p></div>","bodyAsHTML":"<div class=\"fr-view clearfix\">\n <p>I need to ask a question in the success portal, but I don't have a login.</p>\n</div>","author":{"id":31,"username":"demo","reputation":0},"lastEditedAction":1100,"activeRevisionId":847,"revisionIds":[847],"lastActiveUserId":108,"lastActiveDate":1551128676000,"attachments":[],"childrenIds":[846,881,882,885],"commentIds":[846],"marked":false,"topics":[{"id":843,"creationDate":1549651358000,"creationDateFormatted":"02/08/2019 06:42 PM","name":"question","author":{"id":31,"username":"demo","reputation":0},"usedCount":1,"getImmediateChildren":[],"getParents":[]},{"id":844,"creationDate":1549651358000,"creationDateFormatted":"02/08/2019 06:42 PM","name":"help","author":{"id":31,"username":"demo","reputation":0},"usedCount":2,"getImmediateChildren":[],"getParents":[]}],"primaryContainerId":11,"containerIds":[7,11],"slug":"how-do-i-get-a-login-to-the-success-portal","wiki":false,"score":0,"depth":0,"viewCount":10,"upVoteCount":0,"downVoteCount":0,"nodeStates":[],"answers":[881,882,885],"answerCount":3},{"id":835,"type":"question","creationDate":1549897976000,"creationDateFormatted":"02/11/2019 03:12 PM","title":"How do I know if my question is a good question?","body":"<div class=\"fr-view clearfix\">Please help me figure this out.</div>","bodyAsHTML":"<div class=\"fr-view clearfix\">Please help me figure this out.</div>","author":{"id":108,"username":"admin","reputation":91},"lastEditedAction":1108,"activeRevisionId":851,"revisionIds":[851],"lastActiveUserId":114,"lastActiveDate":1550866051000,"attachments":[],"childrenIds":[869],"commentIds":[869],"marked":false,"topics":[{"id":834,"creationDate":1549897976000,"creationDateFormatted":"02/11/2019 03:12 PM","name":"helpme","author":{"id":108,"username":"admin","reputation":91},"usedCount":1,"getImmediateChildren":[],"getParents":[]}],"primaryContainerId":8,"containerIds":[7,8],"slug":"how-do-i-know-if-my-question-is-a-good-question","wiki":false,"score":0,"depth":0,"viewCount":3,"upVoteCount":0,"downVoteCount":0,"nodeStates":[],"answers":[],"answerCount":0},{"id":868,"type":"question","creationDate":1550865948000,"creationDateFormatted":"02/22/2019 08:05 PM","title":"anonymized-user content one to anon","body":"<div class=\"fr-view clearfix\"><p>anon anon 3</p></div>","bodyAsHTML":"<div class=\"fr-view clearfix\">\n <p>anon anon 3</p>\n</div>","author":{"id":114,"username":"usertocatchanon3data","realname":"","reputation":0},"lastEditedAction":1206,"activeRevisionId":887,"revisionIds":[887],"lastActiveUserId":114,"lastActiveDate":1550865948000,"attachments":[],"childrenIds":[],"commentIds":[],"marked":false,"topics":[{"id":630,"creationDate":1547066772000,"creationDateFormatted":"01/09/2019 08:46 PM","name":"testing","author":{"id":43,"username":"Tom.Pryce","reputation":0},"usedCount":26,"getImmediateChildren":[],"getParents":[]}],"primaryContainerId":11,"containerIds":[7,11],"slug":"anonymized-user-content-one-to-anon","wiki":false,"score":0,"depth":0,"viewCount":1,"upVoteCount":0,"downVoteCount":0,"nodeStates":[],"answers":[],"answerCount":0},{"id":876,"type":"question","creationDate":1550863297000,"creationDateFormatted":"02/22/2019 07:21 PM","title":"Question 1 to be anonymized","body":"<div class=\"fr-view clearfix\"><p>test test GDPR anon</p></div>","bodyAsHTML":"<div class=\"fr-view clearfix\">\n <p>test test GDPR anon</p>\n</div>","author":{"id":2,"username":"$$ANON_USER$$","reputation":0},"lastEditedAction":1192,"activeRevisionId":879,"revisionIds":[879],"lastActiveUserId":2,"lastActiveDate":1550863297000,"attachments":[],"childrenIds":[],"commentIds":[],"marked":false,"topics":[{"id":630,"creationDate":1547066772000,"creationDateFormatted":"01/09/2019 08:46 PM","name":"testing","author":{"id":43,"username":"Tom.Pryce","reputation":0},"usedCount":26,"getImmediateChildren":[],"getParents":[]}],"primaryContainerId":11,"containerIds":[7,11],"slug":"question-1-to-be-anonymized","wiki":false,"score":0,"depth":0,"viewCount":2,"upVoteCount":0,"downVoteCount":0,"nodeStates":[],"answers":[],"answerCount":0},{"id":872,"type":"question","creationDate":1550763370000,"creationDateFormatted":"02/21/2019 03:36 PM","title":"As a Community User, How do I know what the Ask an Expert Button Does?","body":"<div class=\"fr-view clearfix\"><p><img src=\"/storage/attachments/11-user-interface-ask-an-expert-button-2019-02-21-at.png\" class=\"fr-fil fr-dib\" /></p></div>","bodyAsHTML":"<div class=\"fr-view clearfix\">\n <p><img src=\"/storage/attachments/11-user-interface-ask-an-expert-button-2019-02-21-at.png\" class=\"fr-fil fr-dib\" /></p>\n</div>","author":{"id":97,"username":"demo3","reputation":1},"lastEditedAction":1156,"activeRevisionId":874,"revisionIds":[874],"lastActiveUserId":97,"lastActiveDate":1550852342000,"attachments":[{"id":11,"fileName":"user-interface-ask-an-expert-button-2019-02-21-at.png","size":212787,"sizeFormatted":"212.8 kB","url":"/storage/attachments/11-user-interface-ask-an-expert-button-2019-02-21-at.png","image":true}],"childrenIds":[862,873,863],"commentIds":[863],"marked":false,"topics":[{"id":630,"creationDate":1547066772000,"creationDateFormatted":"01/09/2019 08:46 PM","name":"testing","author":{"id":43,"username":"Tom.Pryce","reputation":0},"usedCount":26,"getImmediateChildren":[],"getParents":[]},{"id":691,"creationDate":1547066803000,"creationDateFormatted":"01/09/2019 08:46 PM","name":"api","author":{"id":52,"username":"billoakes","reputation":0},"usedCount":22,"getImmediateChildren":[],"getParents":[]},{"id":860,"creationDate":1550763370000,"creationDateFormatted":"02/21/2019 03:36 PM","name":"issue","author":{"id":97,"username":"demo3","reputation":1},"usedCount":1,"getImmediateChildren":[],"getParents":[]},{"id":871,"creationDate":1550763370000,"creationDateFormatted":"02/21/2019 03:36 PM","name":"jira","author":{"id":97,"username":"demo3","reputation":1},"usedCount":1,"getImmediateChildren":[],"getParents":[]}],"primaryContainerId":11,"containerIds":[7,11],"slug":"as-a-community-user-how-do-i-know-what-the-ask-an","wiki":false,"score":0,"depth":0,"viewCount":9,"upVoteCount":0,"downVoteCount":0,"nodeStates":[],"answers":[862,873],"answerCount":1},{"id":544,"type":"question","creationDate":1547066694000,"creationDateFormatted":"01/09/2019 08:44 PM","title":"How do I enable the JIRA Plugin?","body":"<div class=\"fr-view clearfix\"><div class=\"fr-view clearfix\">\n <div class=\"fr-view clearfix\"></div>\n</div></div>","bodyAsHTML":"<div class=\"fr-view clearfix\">\n <div class=\"fr-view clearfix\"> \n  <div class=\"fr-view clearfix\"></div> \n </div>\n</div>","author":{"id":73,"username":"jessed","reputation":0},"lastEditedAction":608,"activeRevisionId":544,"revisionIds":[544],"lastActiveUserId":97,"lastActiveDate":1549904596000,"attachments":[],"childrenIds":[807,837],"commentIds":[837],"marked":false,"topics":[{"id":543,"creationDate":1547066694000,"creationDateFormatted":"01/09/2019 08:44 PM","name":"answerhub","author":{"id":73,"username":"jessed","reputation":0},"usedCount":4,"getImmediateChildren":[],"getParents":[]}],"primaryContainerId":8,"containerIds":[7,8],"slug":"how-do-i-enable-the-jira-plugin","wiki":false,"score":0,"depth":0,"viewCount":19,"upVoteCount":0,"downVoteCount":0,"nodeStates":[],"answers":[807],"answerCount":1},{"id":823,"type":"question","creationDate":1549288832000,"creationDateFormatted":"02/04/2019 02:00 PM","title":"why do we use this site?","body":"<div class=\"fr-view clearfix\"><h2>Why do we use it?</h2><p>It is a long established fact that a reader will be distracted by the readable content of a page when looking at its layout. The point of using Lorem Ipsum is that it has a more-or-less normal distribution of letters, as opposed to using &#39;Content here, content here&#39;, making it look like readable English. Many desktop publishing packages and web page editors now use Lorem Ipsum as their default model text, and a search for &#39;lorem ipsum&#39; will uncover many web sites still in their infancy. Various versions have evolved over the years, sometimes by accident, sometimes on purpose (injected humour and the like).</p></div>","bodyAsHTML":"<div class=\"fr-view clearfix\">\n <h2>Why do we use it?</h2>\n <p>It is a long established fact that a reader will be distracted by the readable content of a page when looking at its layout. The point of using Lorem Ipsum is that it has a more-or-less normal distribution of letters, as opposed to using 'Content here, content here', making it look like readable English. Many desktop publishing packages and web page editors now use Lorem Ipsum as their default model text, and a search for 'lorem ipsum' will uncover many web sites still in their infancy. Various versions have evolved over the years, sometimes by accident, sometimes on purpose (injected humour and the like).</p>\n</div>","author":{"id":111,"username":"suspendabletestuser","reputation":1},"lastEditedAction":1022,"activeRevisionId":834,"revisionIds":[834],"lastActiveUserId":108,"lastActiveDate":1549641370000,"attachments":[],"childrenIds":[833],"commentIds":[],"marked":false,"topics":[{"id":543,"creationDate":1547066694000,"creationDateFormatted":"01/09/2019 08:44 PM","name":"answerhub","author":{"id":73,"username":"jessed","reputation":0},"usedCount":4,"getImmediateChildren":[],"getParents":[]}],"primaryContainerId":11,"containerIds":[7,11],"slug":"why-do-we-use-this-site","wiki":false,"score":0,"depth":0,"viewCount":5,"upVoteCount":0,"downVoteCount":0,"nodeStates":[],"answers":[833],"answerCount":1},{"id":842,"type":"question","creationDate":1549550236000,"creationDateFormatted":"02/07/2019 02:37 PM","title":"Can I cancel my own question?","body":"<div class=\"fr-view clearfix\"><p>There is a permission to control this.</p></div>","bodyAsHTML":"<div class=\"fr-view clearfix\"><p>There is a permission to control this.</p></div>","author":{"id":112,"username":"ricks","reputation":1},"lastEditedAction":1087,"activeRevisionId":844,"revisionIds":[844],"lastActiveUserId":112,"lastActiveDate":1549550236000,"attachments":[],"childrenIds":[],"commentIds":[],"marked":false,"topics":[{"id":630,"creationDate":1547066772000,"creationDateFormatted":"01/09/2019 08:46 PM","name":"testing","author":{"id":43,"username":"Tom.Pryce","reputation":0},"usedCount":26,"getImmediateChildren":[],"getParents":[]}],"primaryContainerId":11,"containerIds":[7,11],"slug":"can-i-cancel-my-own-question","wiki":false,"score":0,"depth":0,"viewCount":3,"upVoteCount":0,"downVoteCount":0,"nodeStates":["closed"],"answers":[],"answerCount":0}]}